<sdf version='1.6'>
  <world name='wall'>

    <light name='sun' type='directional'>
      <cast_shadows>1</cast_shadows>
      <pose>0 0 10 0 0 0</pose>
      <diffuse>1 1 1 1</diffuse>
      <specular>0.9 0.9 0.9 1</specular>
      <attenuation>
        <range>1000</range>
        <constant>0.9</constant>
        <linear>0.01</linear>
        <quadratic>0.001</quadratic>
      </attenuation>
      <direction>-0.5 0.5 -1</direction>
    </light>

    <gravity>0 0 -9.8</gravity>
    <magnetic_field>6e-06 2.3e-05 -4.2e-05</magnetic_field>
    <atmosphere type='adiabatic'/>

    <physics type="ode">
      <ode>
        <solver>
          <type>world</type>
        </solver>
        <constraints>
          <contact_max_correcting_vel>0.1</contact_max_correcting_vel>
          <contact_surface_layer>0.0001</contact_surface_layer>
        </constraints>
      </ode>
      <max_step_size>0.001</max_step_size>
    </physics>

    <scene>
      <ambient>0.2 0.2 0.2 0.1</ambient>
      <background>1.0 1.0 1.0 1</background>
      <sky>
        <time>14.30</time>
      </sky>
      <shadows>0</shadows>
    </scene>

    <spherical_coordinates>
      <surface_model>EARTH_WGS84</surface_model>
      <latitude_deg>0</latitude_deg>
      <longitude_deg>0</longitude_deg>
      <elevation>0</elevation>
      <heading_deg>0</heading_deg>
    </spherical_coordinates>

    <model name="mountain">
      <include>
        <uri>model://mountain</uri>
      </include>
    </model>

    <model name="wall">
      <include>
        <uri>model://wall</uri>
      </include>
    </model>

    <model name="forest">
      <include>
        <uri>model://forest</uri>
      </include>
    </model>

    <model name="tower_beginning">
      <include>
        <uri>model://tower_beginning</uri>
      </include>
    </model>

    <model name="tower_end">
      <include>
        <uri>model://tower_end</uri>
      </include>
    </model>

    <model name="signs">
      <include>
        <uri>model://signs</uri>
      </include>
    </model>

    <gui fullscreen='0'>
      <camera name='user_camera'>
        <pose>0 -15 12 0 0.735264 1.561493</pose>
        <view_controller>orbit</view_controller>
        <projection_type>perspective</projection_type>
      </camera>
    </gui>

    <audio>
      <device>default</device>
    </audio>

  </world>
</sdf>
